[
  {
    "id": "p14",
    "categoryIds": "[c2]",
    "smallName": "HP pavilion",
    "productName": "HP Pavilion 15-CS3007NB Silver",
    "processor" : "Intel Core i5 ",
    "storage": "512 GB ",
    "imageUrl": "https://media.s-bol.com/BLjQkgq0qoyk/550x377.jpg",
    "software": "Windows 10",
    "description" : "Een superdunne, lichte laptop boordevol prestaties en stijl. Wees creatiever dan ooit met deze stijlvolle krachtpatser die speciaal voor jou is gemaakt. Hij is dun genoeg om overal mee naartoe te nemen en biedt voldoende power voor een lange werkdag.",
    "available" : false,
    "size": "Breedte 36,2 cm   |  Diepte 24,6 cm  | Hoogte 1,8 cm",
    "minPrice": "700",
    "maxPrice": "800",
    "buyLink": "https://partner.bol.com/click/click?p=2&t=url&s=1079245&f=TXL&url=https%3A%2F%2Fwww.bol.com%2Fbe%2Fp%2Fhp-pavilion-15-cs3007nb-silver%2F9300000000235619%2F&name=HP%20Pavilion%2015-CS3007NB%20Silver"
  },
  {
    "id": "p2",
    "categoryIds": "[c2]",
    "smallName": "Apple Macbook Air",
    "productName": "Apple Macbook Air (2020)",
    "processor" : "Intel Core i3",
    "storage": "512 GB ",
    "imageUrl": "https://cdn.mos.cms.futurecdn.net/WsUDbtTmJ2CsxwPzeWAFFm-650-80.jpg.webp",
    "software": "Mac OS",
    "description" : "De nieuwste Macbook Air met verbeterde prestaties, nieuw magic toetsenbord en twee keer zoveel opslag dan zijn voorgang.",
    "available" : true,
    "size": "Breedte  30,4 cm  |  Diepte 21,2 cm ",
    "minPrice": "1000",
    "maxPrice": "1300",
    "buyLink": "https://partner.bol.com/click/click?p=2&t=url&s=1079245&f=TXL&url=https%3A%2F%2Fwww.bol.com%2Fbe%2Fp%2Fapple-macbook-air-256-gb-opslag-13-3-inch-spacegrijs-azerty%2F9200000132627732%2F&name=Apple%20Macbook%20Air%20(2020)%20-%20256%20GB%20opslag%20-%2013...."
  },
  {
    "id": "p3",
    "categoryIds": "[c1]",
    "productName": "BenQ GL2480 - 24 Full HD",
    "smallName": "BenQ GL2480",
    "processor" : "/",
    "storage": "/",
    "imageUrl": "https://asset.conrad.com/media10/isa/160267/c1/-/nl/002190582PI08/image.jpg?x=600&y=600",
    "software": "/",
    "description" : "Onze specialist adviseert deze monitor voor:  Gaming: geschikt voor casual gaming dankzij de verversingssnelheid en reactietijd, en de vele aansluitmogelijkheden.   'Films en series kijken, dankzij de Full HD kwaliteit en de mogelijkheid koptelefoon aan te sluiten.",
    "available" : false,
    "size": "24 inch",
    "minPrice": "100",
    "maxPrice": "120",
    "buyLink": "https://partner.bol.com/click/click?p=2&t=url&s=1079245&f=TXL&url=https%3A%2F%2Fwww.bol.com%2Fbe%2Fp%2Fbenq-gl2480-24-full-hd-tn-gaming-monitor-1ms%2F9200000117898337%2F&name=BenQ%20GL2480%20-%2024"

  },
  {
    "id": "p4",
    "categoryIds": "[c3]",
    "smallName": "AMD Game computer",
    "productName": "AMD Ryzen 7 2700X High-End RGB Game Computer",
    "processor" : "AMD Ryzen 7",
    "storage": "512 GB ",
    "imageUrl": "https://crossshopperbiz.blob.core.windows.net/thumb/Fierce-Cheetah-High-End-RGB-RVB-PC-Gamer-4-7GHz-Hex-Core-Intel-Core-i7-8700K-240Go-SSD-1To-HDD-1545553904131.jpg",
    "software": "Windows 10 Pro ",
    "description" : "Met dit systeem hoeft u zich over de processorkracht (8 core processor) de komende jaren geen zorgen te maken en de RX 590 8GB biedt zeer mooie prestaties met gaming. Je zult de meeste games op hoge grafische settings kunnen spelen.",
    "available" : true,
    "size": "Breedte 21,5 cm |   Hoogte 48,5 cm  |  Diepte 41 cm",
    "minPrice": "900",
    "maxPrice": "1100",
    "buyLink": "https://partner.bol.com/click/click?p=2&t=url&s=1079245&f=TXL&url=https%3A%2F%2Fwww.bol.com%2Fbe%2Fp%2Famd-ryzen-7-2700x-high-end-game-pc-streaming-computer-rtx-2070-super-16gb-ram-480gb-ssd-2tb-hdd-full-rgb%2F9200000106897647%2F&name=AMD%20Ryzen%207%202700X%20High-End%20Game%20PC%20%2F%20Streaming..."
  },
  {
    "id": "p5",
    "categoryIds": "[c4,c5]",
    "smallName": "Galaxy Fold",
    "productName": "Samsung Galaxy Fold",
    "processor" : "Octa core (8)",
    "storage": "512 GB ",
    "imageUrl": "https://www.smartphoneonly.de/Blog/wp-content/uploads/2019/12/Mika-Baumeister-Galaxy-Fold-1-Million-Beitragsbild.jpg",
    "software": "Android 9.0 Pie",
    "description" : "Samsung Galaxy Fold SM-F900F. Beeldschermdiagonaal: 18,5 cm , Resolutie: 2152 x 1536 Pixels, Beeldscherm type: Dynamic AMOLED. Frequentie van processor: 2,84 GHz. RAM-capaciteit: 12 GB",
    "available" : true,
    "size": "7.3 inch",
    "minPrice": "1800",
    "maxPrice": "2100",
    "buyLink": "https://www.bol.com/nl/p/samsung-galaxy-fold-cosmos-black/9200000124079381/?bltgh=qWg1kzgit7ZYaPfJHDpFFw.1_4.6.ProductTitle"
  },
  {
    "id": "p13",
    "categoryIds": "[c4]",
    "smallName": "Galaxy s10",
    "productName": "Samsung Galaxy S10",
    "processor" : "Octa core (8)",
    "storage": "128 GB ",
    "imageUrl": "https://content.hwigroup.net/images/products_500x300/515207/samsung-galaxy-s10-128gb-green.jpg",
    "software": "Android 9.0 Pie",
    "description" : "Afleidingen van het scherm zijn weggenomen voor de ultieme kijkervaring. Door de camera discreet weg te stoppen in het display, zonder de fotokwaliteit op te offeren, maak je optimaal gebruik van niet alleen het scherm, maar ook de camera",
    "available" : true,
    "size": "7.3 inch",
    "minPrice": "600",
    "maxPrice": "720",
    "buyLink": "https://partner.bol.com/click/click?p=2&t=url&s=1079245&f=TXL&url=https%3A%2F%2Fwww.bol.com%2Fbe%2Fp%2Fsamsung-galaxy-s10-128gb-prism-zwart%2F9200000106236052%2F&name=Samsung%20Galaxy%20S10%20-%20128GB%20-%20Prism%20Zwart"
  },
  {
    "id": "p6",
    "categoryIds": "[c5]",
    "smallName": "Apple iPad Pro",
    "productName": "Apple iPad Pro (2020)",
    "processor" : "Octa core (8)",
    "storage": "128 GB - 1 TB ",
    "imageUrl": "https://cdn.mos.cms.futurecdn.net/NkXfdFQEpC5hTRr59wgtU7-650-80.jpg.webp",
    "software": "PadOS",
    "description" : "Maak kennis met de iPad Pro. De Apple iPad Pro is voorzien van de meest geavanceerde mobiele display van dit moment. Uitgerust met de pro-cameras die je de wereld op een heel andere manier laat ervaren. ",
    "available" : true,
    "size": "12.9 inch",
    "minPrice": "800",
    "maxPrice": "1500",
    "buyLink": "https://partner.bol.com/click/click?p=2&t=url&s=1079245&f=TXL&url=https%3A%2F%2Fwww.bol.com%2Fbe%2Fp%2Fapple-ipad-pro-11-inch-wifi-64gb-spacegrijs%2F9200000101479244%2F&name=Apple%20iPad%20Pro%20-%2011%20inch%20-%20WiFi%20-%2064GB%20-%20Space..."
  },
  {
    "id": "p11",
    "categoryIds": "[c5]",
    "smallName": "Galaxy tab S6",
    "productName": "Samsung Galaxy Tab S6",
    "processor" : "Octa core (8)",
    "storage": "256 GB",
    "imageUrl": "https://media.krefel.be/sys-master/products/8900682350622/750x750.41004433_9.jpg",
    "software": "Android 9.0 Pie",
    "description" : "Samsung Galaxy Tab S6 SM-T865N. Beeldschermdiagonaal: 26,7 cm (10.5), Resolutie: 2560 x 1600 Pixels, Display technologie: Super AMOLED. ",
    "available" : true,
    "size": "12.9 inch",
    "minPrice": "800",
    "maxPrice": "900",
    "buyLink": "https://www.bol.com/nl/p/samsung-galaxy-tab-s6-256gb-grijs/9200000116679323/?bltgh=lQ3vKh4BCQ-RhUV68uFNjg.1_4.8.ProductTitle"
  },
  {
    "id": "p7",
    "categoryIds": "[c6]",
    "smallName": "HP ENVY Printer",
    "productName": "HP ENVY 5030 - All-in-One Printer",
    "processor" : "/",
    "storage": "/",
    "imageUrl": "https://media.krefel.be/sys-master/products/8828992618526/570x450.41003036_3.jpg",
    "software": "Microsoft® Windows 10, 8.1, 8, 7 ",
    "description" : "Met de HP Envy 5030 kun je eenvoudig printen, kopiëren en scannen. De veelzijdige printer van HP is makkelijk te installeren in je thuisnetwerk, zodat je in een handomdraai vanaf je computer of smartphone draadloos kunt afdrukken. ",
    "available" : true,
    "size": "Afmetingen (b x h x d) 445 x 128 x 367 mm",
    "minPrice": "75",
    "maxPrice": "100",
    "buyLink": "https://www.bol.com/nl/p/hp-envy-5030-all-in-one-printer/9200000081109584/?bltgh=pZ6oDPd2qO4lA7rfVLBHPQ.1_4.5.ProductTitle"
  },
  {
    "id": "p8",
    "categoryIds": "[c7]",
    "smallName": " Apple AirPods 2",
    "productName": "Apple AirPods 2",
    "processor" : "/" ,
    "storage":"/",
    "imageUrl": "https://content.hwigroup.net/images/editorial/600/050203_apple-airpods-1-1280x720.jpg",
    "software": "/",
    "description" : "De nieuwe versie van de Apple Airpods beschikken over de nieuwe H1-Chip, hiermee is het mogelijk om onder andere Hé Siri te gebruiken, in plaats van op de airpod te tikken. Je kan met de Airpods tot wel 5 uur achter elkaar muziek luisterenen ",
    "available" : true,
    "size": " Verpakking breedte 9.70 cm  | Verpakking hoogte 10.10 cm   | Verpakking lengte 3.50 cm ",
    "minPrice": "140",
    "maxPrice": "175",
    "buyLink": "https://partner.bol.com/click/click?p=2&t=url&s=1079245&f=TXL&url=https%3A%2F%2Fwww.bol.com%2Fbe%2Fp%2Fapple-airpods-2-zonder-draadloze-oplaadcase-wit%2F9200000108340791%2F&name=Apple%20AirPods%202%20-%20Zonder%20draadloze%20oplaadcase%20..."
  },
  {
    "id": "p9",
    "categoryIds": "[c8]",
    "smallName": "Samsung 4K TV",
    "productName": "Samsung UE55NU7100W - 4K TV",
    "processor" : "/",
    "storage": "/",
    "imageUrl": "https://www.homecinemamagazine.nl/wp-content/uploads/2018/06/Samsung-UE55NU7100-side-600x351@2x.jpg",
    "software": "/",
    "description" : "Je ziet de kleinste details haarscherp op beeld. Door Samsung PurColor zijn de beelden in natuurlijke kleuren en met ongezien heldere en scherpe details. ",
    "available" : true,
    "size": "Afmetingen met standaard (b x h x d)     1238.6 x 792.8 x 261.3 mm ",
    "minPrice": "500",
    "maxPrice": "800",
    "buyLink": "https://partner.bol.com/click/click?p=2&t=url&s=1079245&f=TXL&url=https%3A%2F%2Fwww.bol.com%2Fbe%2Fp%2Fsamsung-ue55nu7400s-4k-tv%2F9200000091447169%2F&name=Samsung%20UE55NU7400S%20-%204K%20TV"
  },
  {
    "id": "p10",
    "categoryIds": "[c8]",
    "smallName": "LG 4K TV",
    "productName": "LG 43UM7100PLB - 4K TV",
    "processor" : "/",
    "storage": "/",
    "imageUrl": "https://www.lg.com/pl/images/telewizory/md06127042/gallery/TV-UHD-65-55-UM75-A-Gallery-01-1100.jpg",
    "software": "/",
    "description" : "De LG 43UM7100PLB beschikt over een prachtig 43 inch 4K UHD scherm, dit is een scherm vier keer zo scherp als een standaard Full HD tv. ",
    "available" : true,
    "size": "Afmetingen met standaard (b x h x d)  62,7 x 97,5 x 21,6 cm",
    "minPrice": "300",
    "maxPrice": "350",
    "buyLink": "https://partner.bol.com/click/click?p=2&t=url&s=1079245&f=TXL&url=https%3A%2F%2Fwww.bol.com%2Fbe%2Fp%2Flg-43um7100plb-4k-tv%2F9200000112381759%2F&name=LG%2043UM7100PLB%20-%204K%20TV"

  },
  {
    "id": "p12",
    "categoryIds": "[c9]",
    "smallName": "Mini Beamer",
    "productName": "YG-300 LCD Projector - Mini Beamer",
    "processor" :"/",
    "storage": "/",
    "imageUrl": "https://media.s-bol.com/gJ4p3yO1nl9r/550x388.jpg",
    "software": "/",
    "description" : "Let op: deze type beamers hebben een lagere lichtsterkte (lumen) dan reguliere beamers. De ruimte waar je de beamer gebruikt moet dus (deels) verduisterd zijn om goed te kunnen projecteren. ",
    "available" : true,
    "size": "Product breedte 12,5 cm | Product lengte 12,5 cm  | Product hoogte 4,5 cm",
    "minPrice": "50",
    "maxPrice": "70",
    "buyLink": "https://partner.bol.com/click/click?p=2&t=url&s=1079245&f=TXL&url=https%3A%2F%2Fwww.bol.com%2Fbe%2Fp%2Fyg-300-lcd-projector-mini-beamer%2F9200000099189857%2F&name=YG-300%20LCD%20Projector%20-%20Mini%20Beamer"
  },
  {
    "id": "p15",
    "categoryIds": "[c9]",
    "smallName": "Philips Beamer",
    "productName": "Philips NeoPix Easy Beamer",
    "processor" : "/",
    "storage": "/",
    "imageUrl": "https://kijkshop.nl/150684-Niara_large/philips-neopix-easy-466482x.webp",
    "software": "/",
    "description" : "Geniet van een vlekkeloze ervaring en projecteer beelden met een formaat tot 80 inch. Bekijk beelden op uw gemak geniet van stereogeluid en benut alle connectiviteit die u nodig hebt om uw favoriete content te streamen. ",
    "available" : true,
    "size": "Product breedte 20,7 cm | Product lengte 15cm | Product hoogte 8,5 cm",
    "minPrice": "100",
    "maxPrice": "130",
    "buyLink": "https://www.bol.com/nl/p/philips-neopix-easy-beamer/9200000119752164/?bltgh=gw68NBqRRhA9xDuu1wpIEw.1_4.5.ProductTitle"
  },
  {
    "id": "p16",
    "categoryIds": "[c3]",
    "smallName": "Vibox Gaming Desktop",
    "productName": "Vibox Gaming Desktop Warrior 7W - Game PC",
    "processor" : "AMD Ryzen 3",
    "storage": "1000 GB",
    "imageUrl": "https://s.s-bol.com/imgbase0/imagebase3/large/FC/1/5/9/2/9200000082352951.jpg",
    "software": "Windows 10 Pro",
    "description" : "Een AMD Ryzen 3-1200-processor biedt het solide platform dat nodig is voor een moderne game pc, met 4-core technologie voor betere prestaties. De NVIDIA GeForce GTX 1660 is een VR-Ready videokaart waarmee je de meest populaire games zoals Fortnite, PUBG, GTA, Fallout, Minecraft en League of Legends op minimaal 60FPS in prachtige hoge definitie kunt spelen.",
    "available" : true,
    "size": "Breedte 20 cm| Hoogte 45,5 cm | Diepte 46,9 cm",
    "minPrice": "1200",
    "maxPrice": "1350",
    "buyLink": "https://partner.bol.com/click/click?p=2&t=url&s=1079245&f=TXL&url=https%3A%2F%2Fwww.bol.com%2Fbe%2Fp%2Fvibox-gaming-desktop-warrior-7w-game-pc%2F9200000082352987%2F&name=Vibox%20Gaming%20Desktop%20Warrior%207W%20-%20Game%20PC"
  }
]
